[
  {
    "variation": "default",
    "name": "Default",
    "slice_type": "image",
    "items": [],
    "primary": {
      "src": {
        "dimensions": {
          "width": 900,
          "height": 500
        },
        "alt": "Placeholder image",
        "copyright": null,
        "url": "https://images.unsplash.com/photo-1531771686035-25f47595c87a?w=900&h=500&fit=crop"
      }
    }
  }
]